Aula-04/exercicio_fixacao/simulation/qsim/exercicio_fixacao.msim.vcd
$comment
	File created using the following command:
		vcd file exercicio_fixacao.msim.vcd -direction
$end
$date
	Thu Mar 16 15:47:35 2023
$end
$version
	ModelSim Version 10.5b
$end
$timescale
	1ps
$end

$scope module tri_state_vhd_vec_tst $end
$var wire 1 ! ena $end
$var wire 1 " input $end
$var wire 1 # output $end

$scope module i1 $end
$var wire 1 $ gnd $end
$var wire 1 % vcc $end
$var wire 1 & unknown $end
$var wire 1 ' devoe $end
$var wire 1 ( devclrn $end
$var wire 1 ) devpor $end
$var wire 1 * ww_devoe $end
$var wire 1 + ww_devclrn $end
$var wire 1 , ww_devpor $end
$var wire 1 - ww_input $end
$var wire 1 . ww_ena $end
$var wire 1 / ww_output $end
$var wire 1 0 \output~output_o\ $end
$var wire 1 1 \input~input_o\ $end
$var wire 1 2 \ena~input_o\ $end
$upscope $end
$upscope $end
$enddefinitions $end
#0
$dumpvars
0!
0"
z#
0$
1%
x&
1'
1(
1)
1*
1+
1,
0-
0.
z/
z0
01
02
$end
#50000
1"
1-
11
#100000
0"
1!
0-
1.
12
01
00
0/
0#
#150000
1"
1-
11
10
1/
1#
#200000
0"
0!
0-
0.
02
01
z0
z/
z#
#250000
1"
1-
11
#300000
0"
1!
0-
1.
12
01
00
0/
0#
#350000
1"
1-
11
10
1/
1#
#400000
0"
0!
0-
0.
02
01
z0
z/
z#
#450000
1"
1-
11
#500000
0"
1!
0-
1.
12
01
00
0/
0#
#550000
1"
1-
11
10
1/
1#
#600000
0"
0!
0-
0.
02
01
z0
z/
z#
#650000
1"
1-
11
#700000
0"
1!
0-
1.
12
01
00
0/
0#
#750000
1"
1-
11
10
1/
1#
#800000
0"
0!
0-
0.
02
01
z0
z/
z#
#850000
1"
1-
11
#900000
0"
1!
0-
1.
12
01
00
0/
0#
#950000
1"
1-
11
10
1/
1#
